M48
;Layer_Color=9474304
;FILE_FORMAT=2:4
INCH
;TYPE=PLATED
T1F00S00C0.0118
T2F00S00C0.0197
T3F00S00C0.0354
T4F00S00C0.0370
T5F00S00C0.1260
%
T01
X062559Y061890
Y062205
X062874
X064094Y061378
X065000Y062362
X066142Y061181
X070669Y061260
Y061575
Y060945
X072244Y062323
X072559
X072874
X073189
X062244Y062205
X060709Y061654
X060236Y061732
X059921
Y062047
X060236
X059488Y061732
X053819Y062205
Y062480
X053543
X053268
Y062205
X053543
X046811Y064803
X046496
Y065118
X046811
X045315Y065669
Y067362
X044764Y067559
X044449Y067205
X043268Y067362
X042953Y068150
X043268Y069921
X043622Y070276
X043701Y071457
X044213Y071850
X044685Y071772
X044291Y071102
X045079Y070354
Y068425
X046339Y069370
X046220Y073543
X045787Y073465
X045817Y074537
X044921Y073780
X043740Y073032
X044016Y076260
X043228Y077598
X042835
X041614Y077441
X043622Y066535
X047126Y065118
X047441
Y064803
X047126
X049961Y064882
X050512Y065315
X049331Y065512
X052874Y065000
Y063543
X055866Y064055
X055630Y064724
X055512Y065315
X056575Y065394
Y065079
X056890
Y065394
Y065709
X056575
Y066024
X056890
X057402Y066024
X057362Y068898
X057047
X056732
X057677
X057992
X058455Y068218
X060197Y068858
X060512
X060827
X061142
X061457
X060945Y066024
X061024Y065512
X061772Y065748
X062087Y066024
X060787Y064685
X060472
X060157
Y064370
Y064055
X060472
Y064370
X060787
Y064055
X058583Y063386
X057943Y070394
X054764Y068898
X054449
X054134
X053819
X053504
X051654Y070394
X050866Y071181
X050748Y071850
X051063
Y072205
X050748
Y072559
X051063
X048858Y072165
X048504Y071024
X048228Y070039
X050039Y069921
X049961Y071024
X047362Y073268
X046929Y073543
Y072992
X048504Y074646
X047362Y075906
X048150Y077559
X050984Y076102
Y075787
Y075472
Y075157
X051299
Y075472
Y075787
Y076102
X051614
Y075787
Y075472
Y075157
X053504Y076102
X053819
X054134
X054449
X054764
X060551
X060866
X061181
X061496
X061811
X060984Y074724
X063740Y076063
X064055
X064370
X064685
X065000
X065394Y075472
X067244Y074488
X069094Y075984
X071929Y076260
X071181Y077725
Y078000
X070866Y077992
Y077717
X071181Y074724
X070940Y074405
X072126Y074094
X071614Y072756
Y072283
X070551Y072835
X069843Y073071
X068545Y071577
X068467Y069254
X070000Y069724
X070630Y069764
Y067480
X070000Y067441
X066417
X065787Y066457
Y066142
X065472
X065157
X064843
Y066457
X065157
X065472
X066417Y065551
X066417Y063976
X067441Y064331
X067756
X068071
X068386
Y064646
X068071
X067756
X067441
X064449Y064213
X063976Y064213
X064055Y063307
X064331
X064606
Y062992
X064331
X064055
X063780
X063504
Y063307
X063780
X065039Y062717
X062559Y062520
X063740Y068898
X064055
X064370
X064685
X065000
X064291Y070472
Y070787
X063976
Y070472
X064331Y071535
Y071811
X064646
Y071535
X064961
Y071811
X065276
Y071535
X076614Y073425
X073189Y063268
X072874
Y062953
X073189
Y062638
X072874
X072559
Y062953
X072244
Y062638
Y063268
X072559
X071181Y078277
X070866Y078268
X066890Y080827
X066575
Y081181
X066890
Y081535
X066575
X067283Y083504
X067598
Y083819
Y084134
Y084449
Y084764
Y085079
Y085394
Y085709
Y086024
Y086339
Y086654
Y086968
X067283
Y086654
Y086339
Y086024
Y085709
Y085394
Y085079
Y084764
Y084449
Y084134
Y083819
X062518Y084175
X063740Y086811
Y087126
Y087441
Y087756
Y088071
X064094
Y087756
Y087441
Y087126
Y086811
X070236Y086654
X071181Y086772
X070906Y085866
X072126Y087087
X070709Y088228
X070354Y090433
X072795Y092323
X058071Y092677
X057756
X057441
Y092992
Y093307
Y093622
X057756
Y093307
Y092992
X058071
Y093307
Y093622
X060079Y089764
X061024Y087402
X061299
X061575
Y087126
X061299
Y086850
X061575
Y086575
X061299
X061024
Y086850
Y087126
X059133Y086967
X059488Y085945
X060079Y085669
X059055Y085000
X058740
X058425
X058110
X057795
Y084685
X058110
X058425
X058740
X059055
Y084370
X058740
X058425
X058110
X057795
X058268Y086142
X057205Y086772
X052992Y089449
Y089764
Y090079
Y090394
Y090709
X052677
Y090394
Y090079
Y089764
Y089449
X052362
Y089764
Y090079
Y090394
Y090709
X048189Y089016
Y086969
X049173Y087047
X049488
X049803
Y086732
Y086417
Y086102
Y085787
X049488
Y086102
Y086417
Y086732
X049173
Y086417
Y086102
Y085787
X048189Y084882
Y082835
Y080748
Y078661
X051693Y081299
Y081614
Y081929
X052008
X052323
X052638
X052953
Y081614
X052638
X052323
X052008
Y081299
X052323
X052638
X052953
X050394Y082874
X050315Y084094
X050630
Y084449
X050315
Y084803
X050630
X061809Y083466
X044173Y083181
X044173Y082787
X044173Y084598
X044173Y084992
X043228Y085945
X042874
X041457Y085591
X041693Y083898
X042283Y083937
Y084252
X042874Y081732
X043189
X042598Y081260
X042283Y080197
Y079882
X041890Y079213
X041614Y080276
X044173Y080457
X044173Y080850
X044173Y079039
X044173Y078646
Y086929
X044173Y087323
Y088740
X044173Y089134
X043228Y090118
X042835
X041732Y090236
X042283Y088504
Y088189
X041693Y087913
X057441Y093937
X057756
X058071
X071339Y094094
X072323Y094094
T02
X070906Y081949
Y082441
Y082933
Y083425
Y083917
Y084409
T03
X052598Y061339
Y062339
X046299Y061181
X045299
X065197Y093094
X047362Y089543
Y088543
X047362Y087472
Y086472
X047362Y085402
Y084402
X047362Y083331
Y082331
X047362Y081260
Y080260
X047362Y079189
Y078189
X046693Y091102
Y092102
X046693Y093465
Y094465
X065197Y094094
T04
X072756Y065000
Y066000
Y067000
X073756
Y068000
X072756
Y069000
Y070000
Y071000
Y072000
Y073000
Y074000
Y075000
Y076000
Y077000
Y078000
X073756
Y077000
Y076000
Y075000
Y074000
Y073000
Y072000
Y071000
Y070000
Y069000
X074756
Y070000
Y071000
Y072000
Y073000
Y074000
Y075000
Y076000
Y077000
Y078000
X075756
Y077000
Y076000
Y075000
Y074000
Y073000
Y072000
Y071000
Y070000
Y069000
Y068000
Y067000
X074756
Y068000
Y066000
X073756
Y065000
X074756
X075756
Y066000
Y079000
X074756
X073756
X072756
Y080000
Y081000
Y082000
Y083000
X073756
Y084000
X072756
Y085000
Y086000
X073756
Y087000
X072756
Y088000
Y089000
X073756
Y088000
X074756
Y089000
X075756
Y088000
Y087000
Y086000
X074756
Y085000
X073756
X074756Y084000
Y083000
Y082000
X073756
Y081000
Y080000
X074756
Y081000
X075756
Y082000
Y083000
Y084000
Y085000
X074756Y087000
Y090000
X073756
X072756
X075756
Y080000
T05
X067559Y061968
X050236
X042008Y062008
X050236Y077717
X067559
X075748Y062992
Y092008
X067559Y093465
X050236
X042008Y093504
M30
