ISO-10303-21;
HEADER;
FILE_DESCRIPTION(('CATIA V5 STEP Exchange'),'2;1');

FILE_NAME('G:\\LC22-01a electrical power system\\design\\mechanical\\battery pack\\parts\\battery.stp','2014-04-18T15:22:27+00:00',('none'),('none'),'CATIA Version 5 Release 20 SP 4 (IN-10)','CATIA V5 STEP AP203','none');

FILE_SCHEMA(('CONFIG_CONTROL_DESIGN'));

ENDSEC;
/* file written by CATIA V5R20 */
DATA;
#5=PRODUCT('battery','','',(#2)) ;
#1=APPLICATION_CONTEXT('configuration controlled 3D design of mechanical parts and assemblies') ;
#14=PRODUCT_DEFINITION('',' ',#6,#3) ;
#16=SECURITY_CLASSIFICATION(' ',' ',#15) ;
#15=SECURITY_CLASSIFICATION_LEVEL('unclassified') ;
#47=CARTESIAN_POINT(' ',(0.,0.,0.)) ;
#52=CARTESIAN_POINT('Axis2P3D Location',(0.,0.,49.95)) ;
#57=CARTESIAN_POINT('Line Origine',(5.,0.,49.95)) ;
#61=CARTESIAN_POINT('Vertex',(5.,0.,50.2)) ;
#63=CARTESIAN_POINT('Vertex',(5.,0.,49.7)) ;
#66=CARTESIAN_POINT('Axis2P3D Location',(0.,0.,50.2)) ;
#70=CARTESIAN_POINT('Vertex',(-5.,6.12303176911E-016,50.2)) ;
#73=CARTESIAN_POINT('Line Origine',(-5.,6.12303176911E-016,49.95)) ;
#77=CARTESIAN_POINT('Vertex',(-5.,6.12303176911E-016,49.7)) ;
#80=CARTESIAN_POINT('Axis2P3D Location',(0.,0.,49.7)) ;
#92=CARTESIAN_POINT('Axis2P3D Location',(0.,0.,50.2)) ;
#97=CARTESIAN_POINT('Axis2P3D Location',(0.,0.,49.7)) ;
#109=CARTESIAN_POINT('Axis2P3D Location',(0.,0.,49.7)) ;
#119=CARTESIAN_POINT('Axis2P3D Location',(0.,0.,50.2)) ;
#124=CARTESIAN_POINT('Axis2P3D Location',(-11.55,8.881784197E-016,50.2)) ;
#128=CARTESIAN_POINT('Vertex',(-11.55,5.4,50.2)) ;
#130=CARTESIAN_POINT('Vertex',(-11.55,-5.4,50.2)) ;
#133=CARTESIAN_POINT('Line Origine',(7.1054273576E-015,-5.4,50.2)) ;
#137=CARTESIAN_POINT('Vertex',(11.55,-5.4,50.2)) ;
#140=CARTESIAN_POINT('Axis2P3D Location',(11.55,8.881784197E-016,50.2)) ;
#144=CARTESIAN_POINT('Vertex',(11.55,5.4,50.2)) ;
#147=CARTESIAN_POINT('Line Origine',(7.1054273576E-015,5.4,50.2)) ;
#163=CARTESIAN_POINT('Axis2P3D Location',(0.,0.,0.)) ;
#168=CARTESIAN_POINT('Line Origine',(7.1054273576E-015,5.4,0.)) ;
#172=CARTESIAN_POINT('Vertex',(11.55,5.4,0.)) ;
#174=CARTESIAN_POINT('Vertex',(-11.55,5.4,0.)) ;
#177=CARTESIAN_POINT('Axis2P3D Location',(11.55,8.881784197E-016,0.)) ;
#181=CARTESIAN_POINT('Vertex',(11.55,-5.4,0.)) ;
#184=CARTESIAN_POINT('Line Origine',(7.1054273576E-015,-5.4,0.)) ;
#188=CARTESIAN_POINT('Vertex',(-11.55,-5.4,0.)) ;
#191=CARTESIAN_POINT('Axis2P3D Location',(-11.55,8.881784197E-016,0.)) ;
#203=CARTESIAN_POINT('Axis2P3D Location',(-11.55,5.4,0.)) ;
#208=CARTESIAN_POINT('Line Origine',(11.55,5.4,25.1)) ;
#213=CARTESIAN_POINT('Line Origine',(-11.55,5.4,25.1)) ;
#225=CARTESIAN_POINT('Axis2P3D Location',(11.55,8.881784197E-016,25.1)) ;
#230=CARTESIAN_POINT('Line Origine',(11.55,-5.4,25.1)) ;
#242=CARTESIAN_POINT('Axis2P3D Location',(11.55,-5.4,0.)) ;
#247=CARTESIAN_POINT('Line Origine',(-11.55,-5.4,25.1)) ;
#259=CARTESIAN_POINT('Axis2P3D Location',(-11.55,8.881784197E-016,25.1)) ;
#53=DIRECTION('Axis2P3D Direction',(0.,0.,1.)) ;
#54=DIRECTION('Axis2P3D XDirection',(-1.,1.22460635382E-016,0.)) ;
#58=DIRECTION('Vector Direction',(0.,0.,1.)) ;
#67=DIRECTION('Axis2P3D Direction',(0.,0.,1.)) ;
#74=DIRECTION('Vector Direction',(0.,0.,1.)) ;
#81=DIRECTION('Axis2P3D Direction',(0.,0.,1.)) ;
#93=DIRECTION('Axis2P3D Direction',(0.,0.,1.)) ;
#98=DIRECTION('Axis2P3D Direction',(0.,0.,1.)) ;
#110=DIRECTION('Axis2P3D Direction',(0.,0.,1.)) ;
#111=DIRECTION('Axis2P3D XDirection',(1.,0.,0.)) ;
#120=DIRECTION('Axis2P3D Direction',(0.,0.,1.)) ;
#121=DIRECTION('Axis2P3D XDirection',(1.,0.,0.)) ;
#125=DIRECTION('Axis2P3D Direction',(0.,0.,1.)) ;
#134=DIRECTION('Vector Direction',(-1.,0.,0.)) ;
#141=DIRECTION('Axis2P3D Direction',(0.,0.,1.)) ;
#148=DIRECTION('Vector Direction',(1.,0.,0.)) ;
#164=DIRECTION('Axis2P3D Direction',(0.,0.,1.)) ;
#165=DIRECTION('Axis2P3D XDirection',(1.,0.,0.)) ;
#169=DIRECTION('Vector Direction',(1.,0.,0.)) ;
#178=DIRECTION('Axis2P3D Direction',(0.,0.,1.)) ;
#185=DIRECTION('Vector Direction',(-1.,0.,0.)) ;
#192=DIRECTION('Axis2P3D Direction',(0.,0.,1.)) ;
#204=DIRECTION('Axis2P3D Direction',(0.,-1.,0.)) ;
#205=DIRECTION('Axis2P3D XDirection',(1.,0.,0.)) ;
#209=DIRECTION('Vector Direction',(0.,0.,1.)) ;
#214=DIRECTION('Vector Direction',(0.,0.,1.)) ;
#226=DIRECTION('Axis2P3D Direction',(0.,0.,1.)) ;
#227=DIRECTION('Axis2P3D XDirection',(-1.83690953073E-016,-1.,-0.)) ;
#231=DIRECTION('Vector Direction',(0.,0.,1.)) ;
#243=DIRECTION('Axis2P3D Direction',(0.,1.,-0.)) ;
#244=DIRECTION('Axis2P3D XDirection',(-1.,0.,0.)) ;
#248=DIRECTION('Vector Direction',(0.,0.,1.)) ;
#260=DIRECTION('Axis2P3D Direction',(0.,0.,1.)) ;
#261=DIRECTION('Axis2P3D XDirection',(6.12303176911E-017,1.,0.)) ;
#48=AXIS2_PLACEMENT_3D(' ',#47,$,$) ;
#55=AXIS2_PLACEMENT_3D('Cylinder Axis2P3D',#52,#53,#54) ;
#68=AXIS2_PLACEMENT_3D('Circle Axis2P3D',#66,#67,$) ;
#82=AXIS2_PLACEMENT_3D('Circle Axis2P3D',#80,#81,$) ;
#94=AXIS2_PLACEMENT_3D('Circle Axis2P3D',#92,#93,$) ;
#99=AXIS2_PLACEMENT_3D('Circle Axis2P3D',#97,#98,$) ;
#112=AXIS2_PLACEMENT_3D('Plane Axis2P3D',#109,#110,#111) ;
#122=AXIS2_PLACEMENT_3D('Plane Axis2P3D',#119,#120,#121) ;
#126=AXIS2_PLACEMENT_3D('Circle Axis2P3D',#124,#125,$) ;
#142=AXIS2_PLACEMENT_3D('Circle Axis2P3D',#140,#141,$) ;
#166=AXIS2_PLACEMENT_3D('Plane Axis2P3D',#163,#164,#165) ;
#179=AXIS2_PLACEMENT_3D('Circle Axis2P3D',#177,#178,$) ;
#193=AXIS2_PLACEMENT_3D('Circle Axis2P3D',#191,#192,$) ;
#206=AXIS2_PLACEMENT_3D('Plane Axis2P3D',#203,#204,#205) ;
#228=AXIS2_PLACEMENT_3D('Cylinder Axis2P3D',#225,#226,#227) ;
#245=AXIS2_PLACEMENT_3D('Plane Axis2P3D',#242,#243,#244) ;
#262=AXIS2_PLACEMENT_3D('Cylinder Axis2P3D',#259,#260,#261) ;
#40=PRODUCT_DEFINITION_SHAPE(' ',' ',#14) ;
#31=APPROVAL_PERSON_ORGANIZATION(#25,#21,#19) ;
#25=PERSON_AND_ORGANIZATION(#22,#23) ;
#22=PERSON(' ',' ',' ',$,$,$) ;
#23=ORGANIZATION(' ',' ',' ') ;
#21=APPROVAL(#20,' ') ;
#20=APPROVAL_STATUS('not_yet_approved') ;
#19=APPROVAL_ROLE('APPROVER') ;
#13=DATE_AND_TIME(#11,#12) ;
#12=LOCAL_TIME(17,22,27.,#10) ;
#10=COORDINATED_UNIVERSAL_TIME_OFFSET(0,0,.AHEAD.) ;
#86=ORIENTED_EDGE('',*,*,#65,.F.) ;
#87=ORIENTED_EDGE('',*,*,#72,.T.) ;
#88=ORIENTED_EDGE('',*,*,#79,.T.) ;
#89=ORIENTED_EDGE('',*,*,#84,.F.) ;
#103=ORIENTED_EDGE('',*,*,#79,.F.) ;
#104=ORIENTED_EDGE('',*,*,#96,.T.) ;
#105=ORIENTED_EDGE('',*,*,#65,.T.) ;
#106=ORIENTED_EDGE('',*,*,#101,.F.) ;
#115=ORIENTED_EDGE('',*,*,#84,.T.) ;
#116=ORIENTED_EDGE('',*,*,#101,.T.) ;
#153=ORIENTED_EDGE('',*,*,#132,.T.) ;
#154=ORIENTED_EDGE('',*,*,#139,.T.) ;
#155=ORIENTED_EDGE('',*,*,#146,.T.) ;
#156=ORIENTED_EDGE('',*,*,#151,.T.) ;
#159=ORIENTED_EDGE('',*,*,#72,.F.) ;
#160=ORIENTED_EDGE('',*,*,#96,.F.) ;
#197=ORIENTED_EDGE('',*,*,#176,.F.) ;
#198=ORIENTED_EDGE('',*,*,#183,.F.) ;
#199=ORIENTED_EDGE('',*,*,#190,.F.) ;
#200=ORIENTED_EDGE('',*,*,#195,.F.) ;
#219=ORIENTED_EDGE('',*,*,#212,.F.) ;
#220=ORIENTED_EDGE('',*,*,#176,.T.) ;
#221=ORIENTED_EDGE('',*,*,#217,.T.) ;
#222=ORIENTED_EDGE('',*,*,#151,.F.) ;
#236=ORIENTED_EDGE('',*,*,#234,.F.) ;
#237=ORIENTED_EDGE('',*,*,#183,.T.) ;
#238=ORIENTED_EDGE('',*,*,#212,.T.) ;
#239=ORIENTED_EDGE('',*,*,#146,.F.) ;
#253=ORIENTED_EDGE('',*,*,#251,.F.) ;
#254=ORIENTED_EDGE('',*,*,#190,.T.) ;
#255=ORIENTED_EDGE('',*,*,#234,.T.) ;
#256=ORIENTED_EDGE('',*,*,#139,.F.) ;
#265=ORIENTED_EDGE('',*,*,#217,.F.) ;
#266=ORIENTED_EDGE('',*,*,#195,.T.) ;
#267=ORIENTED_EDGE('',*,*,#251,.T.) ;
#268=ORIENTED_EDGE('',*,*,#132,.F.) ;
#161=FACE_BOUND('',#158,.T.) ;
#51=CLOSED_SHELL('Closed Shell',(#91,#108,#118,#162,#202,#224,#241,#258,#270)) ;
#59=VECTOR('Line Direction',#58,1.) ;
#75=VECTOR('Line Direction',#74,1.) ;
#135=VECTOR('Line Direction',#134,1.) ;
#149=VECTOR('Line Direction',#148,1.) ;
#170=VECTOR('Line Direction',#169,1.) ;
#186=VECTOR('Line Direction',#185,1.) ;
#210=VECTOR('Line Direction',#209,1.) ;
#215=VECTOR('Line Direction',#214,1.) ;
#232=VECTOR('Line Direction',#231,1.) ;
#249=VECTOR('Line Direction',#248,1.) ;
#272=ADVANCED_BREP_SHAPE_REPRESENTATION('NONE',(#271),#46) ;
#49=SHAPE_REPRESENTATION(' ',(#48),#46) ;
#91=ADVANCED_FACE('PartBody',(#90),#56,.F.) ;
#108=ADVANCED_FACE('PartBody',(#107),#56,.F.) ;
#118=ADVANCED_FACE('PartBody',(#117),#113,.T.) ;
#162=ADVANCED_FACE('PartBody',(#157,#161),#123,.T.) ;
#202=ADVANCED_FACE('PartBody',(#201),#167,.F.) ;
#224=ADVANCED_FACE('PartBody',(#223),#207,.F.) ;
#241=ADVANCED_FACE('PartBody',(#240),#229,.T.) ;
#258=ADVANCED_FACE('PartBody',(#257),#246,.F.) ;
#270=ADVANCED_FACE('PartBody',(#269),#263,.T.) ;
#4=APPLICATION_PROTOCOL_DEFINITION('international standard','config_control_design',1994,#1) ;
#32=APPROVAL_DATE_TIME(#13,#21) ;
#271=MANIFOLD_SOLID_BREP('PartBody',#51) ;
#11=CALENDAR_DATE(2014,18,4) ;
#30=CC_DESIGN_APPROVAL(#21,(#16,#6,#14)) ;
#18=CC_DESIGN_DATE_AND_TIME_ASSIGNMENT(#13,#17,(#16)) ;
#29=CC_DESIGN_DATE_AND_TIME_ASSIGNMENT(#13,#28,(#14)) ;
#17=DATE_TIME_ROLE('classification_date') ;
#28=DATE_TIME_ROLE('creation_date') ;
#27=CC_DESIGN_PERSON_AND_ORGANIZATION_ASSIGNMENT(#25,#26,(#16)) ;
#33=CC_DESIGN_PERSON_AND_ORGANIZATION_ASSIGNMENT(#25,#34,(#6)) ;
#35=CC_DESIGN_PERSON_AND_ORGANIZATION_ASSIGNMENT(#25,#36,(#6,#14)) ;
#37=CC_DESIGN_PERSON_AND_ORGANIZATION_ASSIGNMENT(#25,#38,(#5)) ;
#26=PERSON_AND_ORGANIZATION_ROLE('classification_officer') ;
#34=PERSON_AND_ORGANIZATION_ROLE('design_supplier') ;
#36=PERSON_AND_ORGANIZATION_ROLE('creator') ;
#38=PERSON_AND_ORGANIZATION_ROLE('design_owner') ;
#39=CC_DESIGN_SECURITY_CLASSIFICATION(#16,(#6)) ;
#69=CIRCLE('generated circle',#68,5.) ;
#83=CIRCLE('generated circle',#82,5.) ;
#95=CIRCLE('generated circle',#94,5.) ;
#100=CIRCLE('generated circle',#99,5.) ;
#127=CIRCLE('generated circle',#126,5.4) ;
#143=CIRCLE('generated circle',#142,5.4) ;
#180=CIRCLE('generated circle',#179,5.4) ;
#194=CIRCLE('generated circle',#193,5.4) ;
#273=SHAPE_REPRESENTATION_RELATIONSHIP(' ',' ',#49,#272) ;
#56=CYLINDRICAL_SURFACE('generated cylinder',#55,5.) ;
#229=CYLINDRICAL_SURFACE('generated cylinder',#228,5.4) ;
#263=CYLINDRICAL_SURFACE('generated cylinder',#262,5.4) ;
#3=DESIGN_CONTEXT(' ',#1,'design') ;
#65=EDGE_CURVE('',#62,#64,#60,.F.) ;
#72=EDGE_CURVE('',#62,#71,#69,.T.) ;
#79=EDGE_CURVE('',#71,#78,#76,.F.) ;
#84=EDGE_CURVE('',#64,#78,#83,.T.) ;
#96=EDGE_CURVE('',#71,#62,#95,.T.) ;
#101=EDGE_CURVE('',#78,#64,#100,.T.) ;
#132=EDGE_CURVE('',#129,#131,#127,.T.) ;
#139=EDGE_CURVE('',#131,#138,#136,.F.) ;
#146=EDGE_CURVE('',#138,#145,#143,.T.) ;
#151=EDGE_CURVE('',#145,#129,#150,.F.) ;
#176=EDGE_CURVE('',#173,#175,#171,.F.) ;
#183=EDGE_CURVE('',#182,#173,#180,.T.) ;
#190=EDGE_CURVE('',#189,#182,#187,.F.) ;
#195=EDGE_CURVE('',#175,#189,#194,.T.) ;
#212=EDGE_CURVE('',#173,#145,#211,.T.) ;
#217=EDGE_CURVE('',#175,#129,#216,.T.) ;
#234=EDGE_CURVE('',#182,#138,#233,.T.) ;
#251=EDGE_CURVE('',#189,#131,#250,.T.) ;
#85=EDGE_LOOP('',(#86,#87,#88,#89)) ;
#102=EDGE_LOOP('',(#103,#104,#105,#106)) ;
#114=EDGE_LOOP('',(#115,#116)) ;
#152=EDGE_LOOP('',(#153,#154,#155,#156)) ;
#158=EDGE_LOOP('',(#159,#160)) ;
#196=EDGE_LOOP('',(#197,#198,#199,#200)) ;
#218=EDGE_LOOP('',(#219,#220,#221,#222)) ;
#235=EDGE_LOOP('',(#236,#237,#238,#239)) ;
#252=EDGE_LOOP('',(#253,#254,#255,#256)) ;
#264=EDGE_LOOP('',(#265,#266,#267,#268)) ;
#90=FACE_OUTER_BOUND('',#85,.T.) ;
#107=FACE_OUTER_BOUND('',#102,.T.) ;
#117=FACE_OUTER_BOUND('',#114,.T.) ;
#157=FACE_OUTER_BOUND('',#152,.T.) ;
#201=FACE_OUTER_BOUND('',#196,.T.) ;
#223=FACE_OUTER_BOUND('',#218,.T.) ;
#240=FACE_OUTER_BOUND('',#235,.T.) ;
#257=FACE_OUTER_BOUND('',#252,.T.) ;
#269=FACE_OUTER_BOUND('',#264,.T.) ;
#45=UNCERTAINTY_MEASURE_WITH_UNIT(LENGTH_MEASURE(0.005),#41,'distance_accuracy_value','CONFUSED CURVE UNCERTAINTY') ;
#60=LINE('Line',#57,#59) ;
#76=LINE('Line',#73,#75) ;
#136=LINE('Line',#133,#135) ;
#150=LINE('Line',#147,#149) ;
#171=LINE('Line',#168,#170) ;
#187=LINE('Line',#184,#186) ;
#211=LINE('Line',#208,#210) ;
#216=LINE('Line',#213,#215) ;
#233=LINE('Line',#230,#232) ;
#250=LINE('Line',#247,#249) ;
#2=MECHANICAL_CONTEXT(' ',#1,'mechanical') ;
#24=PERSONAL_ADDRESS(' ',' ',' ',' ',' ',' ',' ',' ',' ',' ',' ',' ',(#22),' ') ;
#113=PLANE('',#112) ;
#123=PLANE('',#122) ;
#167=PLANE('',#166) ;
#207=PLANE('',#206) ;
#246=PLANE('',#245) ;
#43=PLANE_ANGLE_MEASURE_WITH_UNIT(PLANE_ANGLE_MEASURE(0.0174532925199),#42) ;
#7=PRODUCT_CATEGORY('part',$) ;
#9=PRODUCT_CATEGORY_RELATIONSHIP(' ',' ',#7,#8) ;
#6=PRODUCT_DEFINITION_FORMATION_WITH_SPECIFIED_SOURCE('',' ',#5,.NOT_KNOWN.) ;
#8=PRODUCT_RELATED_PRODUCT_CATEGORY('detail',$,(#5)) ;
#50=SHAPE_DEFINITION_REPRESENTATION(#40,#49) ;
#62=VERTEX_POINT('',#61) ;
#64=VERTEX_POINT('',#63) ;
#71=VERTEX_POINT('',#70) ;
#78=VERTEX_POINT('',#77) ;
#129=VERTEX_POINT('',#128) ;
#131=VERTEX_POINT('',#130) ;
#138=VERTEX_POINT('',#137) ;
#145=VERTEX_POINT('',#144) ;
#173=VERTEX_POINT('',#172) ;
#175=VERTEX_POINT('',#174) ;
#182=VERTEX_POINT('',#181) ;
#189=VERTEX_POINT('',#188) ;
#41=(LENGTH_UNIT()NAMED_UNIT(*)SI_UNIT(.MILLI.,.METRE.)) ;
#42=(NAMED_UNIT(*)PLANE_ANGLE_UNIT()SI_UNIT($,.RADIAN.)) ;
#44=(NAMED_UNIT(*)SI_UNIT($,.STERADIAN.)SOLID_ANGLE_UNIT()) ;
#46=(GEOMETRIC_REPRESENTATION_CONTEXT(3)GLOBAL_UNCERTAINTY_ASSIGNED_CONTEXT((#45))GLOBAL_UNIT_ASSIGNED_CONTEXT((#41,#42,#44))REPRESENTATION_CONTEXT(' ',' ')) ;
ENDSEC;
END-ISO-10303-21;
